{
	"info": {
		"_postman_id": "c54090c2-277d-4212-a3a8-8f15e0709e11",
		"name": "HERE Platform (Workspace)",
		"schema": "https://schema.getpostman.com/json/collection/v2.1.0/collection.json",
		"_exporter_id": "5552723"
	},
	"item": [
		{
			"name": "IMLs",
			"item": [
				{
					"name": "Get features by bounding box",
					"request": {
						"method": "GET",
						"header": [],
						"url": {
							"raw": "https://interactive.data.api.platform.here.com/interactive/v1/catalogs/hrn:here:data::olp-here:heresdk-byod/layers/sample-points/bbox?bbox=54.91050870588408,24.61232633076442,55.605442773020826,25.802661880583116",
							"protocol": "https",
							"host": [
								"interactive",
								"data",
								"api",
								"platform",
								"here",
								"com"
							],
							"path": [
								"interactive",
								"v1",
								"catalogs",
								"hrn:here:data::olp-here:heresdk-byod",
								"layers",
								"sample-points",
								"bbox"
							],
							"query": [
								{
									"key": "bbox",
									"value": "54.91050870588408,24.61232633076442,55.605442773020826,25.802661880583116"
								}
							]
						}
					},
					"response": []
				},
				{
					"name": "Get the API base URLs for a catalog",
					"request": {
						"method": "GET",
						"header": [],
						"url": {
							"raw": "https://api-lookup.data.api.platform.here.com/lookup/v1/resources/hrn:here:data::olp-here:heresdk-byod/apis",
							"protocol": "https",
							"host": [
								"api-lookup",
								"data",
								"api",
								"platform",
								"here",
								"com"
							],
							"path": [
								"lookup",
								"v1",
								"resources",
								"hrn:here:data::olp-here:heresdk-byod",
								"apis"
							]
						}
					},
					"response": []
				},
				{
					"name": "Search for features",
					"request": {
						"method": "GET",
						"header": [],
						"url": {
							"raw": "https://interactive.data.api.platform.here.com/interactive/v1/catalogs/hrn:here:data::olp-here:heresdk-byod/layers/evchargingstations/search?limit=20&p.connector_types@>=CHAdeMO,Type 2",
							"protocol": "https",
							"host": [
								"interactive",
								"data",
								"api",
								"platform",
								"here",
								"com"
							],
							"path": [
								"interactive",
								"v1",
								"catalogs",
								"hrn:here:data::olp-here:heresdk-byod",
								"layers",
								"evchargingstations",
								"search"
							],
							"query": [
								{
									"key": "p.name",
									"value": "Ras Al Khaimah Charging Station 1",
									"disabled": true
								},
								{
									"key": "p.name!",
									"value": "Ras Al Khaimah",
									"disabled": true
								},
								{
									"key": "p.name=cs=",
									"value": "Ras Al Khaimah,Fujairah",
									"disabled": true
								},
								{
									"key": "limit",
									"value": "20"
								},
								{
									"key": "p.connector_types@>",
									"value": "CHAdeMO,Type 2"
								}
							]
						}
					},
					"response": []
				},
				{
					"name": "Sign in",
					"event": [
						{
							"listen": "test",
							"script": {
								"exec": [
									"var jsonData = JSON.parse(responseBody);",
									"postman.setEnvironmentVariable(\"ha-access-token\", jsonData.accessToken);"
								],
								"type": "text/javascript"
							}
						}
					],
					"request": {
						"auth": {
							"type": "oauth1",
							"oauth1": [
								{
									"key": "consumerSecret",
									"value": "{{here.access.key.secret_WCheetos-CTO}}",
									"type": "string"
								},
								{
									"key": "consumerKey",
									"value": "{{here.access.key.id_WCheetos-CTO}}",
									"type": "string"
								},
								{
									"key": "addParamsToHeader",
									"value": true,
									"type": "boolean"
								},
								{
									"key": "signatureMethod",
									"value": "HMAC-SHA1",
									"type": "string"
								},
								{
									"key": "version",
									"value": "1.0",
									"type": "string"
								},
								{
									"key": "addEmptyParamsToSign",
									"value": false,
									"type": "boolean"
								}
							]
						},
						"method": "POST",
						"header": [
							{
								"key": "Content-Type",
								"value": "application/json"
							}
						],
						"body": {
							"mode": "raw",
							"raw": "{\n  \"grantType\": \"client_credentials\",\n  \"clientId\": \"{{ha-client-id}}\",\n  \"clientSecret\": \"{{ha-client-secret}}\",\n  \"tokenFormat\": \"hN\"\n}"
						},
						"url": {
							"raw": "{{ha-env}}/oauth2/token",
							"host": [
								"{{ha-env}}"
							],
							"path": [
								"oauth2",
								"token"
							]
						},
						"description": "[Sign in with client credentials]\nRequest a client token that identifies your app or service by providing your client credentials.\n\n**Properties**\n\n- `grantType`: String. Required. Always \"client_credentials\" for this operation.\n- `clientId`: String. Required. Druid provisioned app ID.\n- `clientSecret`: String. Required. HERE Account provisioned client secret.\n- `tokenFormat`: String. Optional. The format of the token. Can be hN or jwt."
					},
					"response": []
				},
				{
					"name": "Write features",
					"request": {
						"method": "PUT",
						"header": [],
						"body": {
							"mode": "raw",
							"raw": "{\n    \"type\": \"FeatureCollection\",\n    \"features\": [\n        {\n            \"type\": \"Feature\",\n            \"geometry\": {\n              \"type\": \"Point\",\n              \"coordinates\": [55.274355, 25.197631]  \n            },\n            \"properties\": {\n              \"name\": \"Dubai Charging Station 1\",\n              \"address\": \"123 Charging Street, Dubai\",\n              \"connector_types\": [\"CHAdeMO\", \"CCS\", \"Type 2\"],\n              \"status\": \"Operational\"\n            }\n          },\n          {\n            \"type\": \"Feature\",\n            \"geometry\": {\n              \"type\": \"Point\",\n              \"coordinates\": [55.302899, 25.276987]  \n            },\n            \"properties\": {\n              \"name\": \"Dubai Charging Station 2\",\n              \"address\": \"456 Power Avenue, Dubai\",\n              \"connector_types\": [\"CHAdeMO\", \"Type 2\"],\n              \"status\": \"Operational\"\n            }\n          },\n          {\n            \"type\": \"Feature\",\n            \"geometry\": {\n              \"type\": \"Point\",\n              \"coordinates\": [55.265428, 25.192204]  \n            },\n            \"properties\": {\n              \"name\": \"Dubai Charging Station 3\",\n              \"address\": \"789 Energy Street, Dubai\",\n              \"connector_types\": [\"CCS\", \"Type 2\"],\n              \"status\": \"Under Maintenance\"\n            }\n          },\n          {\n            \"type\": \"Feature\",\n            \"geometry\": {\n              \"type\": \"Point\",\n              \"coordinates\": [54.380001, 24.476565]  \n            },\n            \"properties\": {\n              \"name\": \"Abu Dhabi Charging Station 1\",\n              \"address\": \"123 Charging Street, Abu Dhabi\",\n              \"connector_types\": [\"CHAdeMO\", \"CCS\", \"Type 2\"],\n              \"status\": \"Operational\"\n            }\n          },\n          {\n            \"type\": \"Feature\",\n            \"geometry\": {\n              \"type\": \"Point\",\n              \"coordinates\": [54.361143, 24.481785]  \n            },\n            \"properties\": {\n              \"name\": \"Abu Dhabi Charging Station 2\",\n              \"address\": \"456 Power Avenue, Abu Dhabi\",\n              \"connector_types\": [\"CCS\", \"Type 2\"],\n              \"status\": \"Operational\"\n            }\n          },\n          {\n            \"type\": \"Feature\",\n            \"geometry\": {\n              \"type\": \"Point\",\n              \"coordinates\": [54.387843, 24.458611]  \n            },\n            \"properties\": {\n              \"name\": \"Abu Dhabi Charging Station 3\",\n              \"address\": \"789 Energy Street, Abu Dhabi\",\n              \"connector_types\": [\"CHAdeMO\", \"Type 2\"],\n              \"status\": \"Under Maintenance\"\n            }\n          },\n          {\n            \"type\": \"Feature\",\n            \"geometry\": {\n              \"type\": \"Point\",\n              \"coordinates\": [55.396416, 25.346255]  \n            },\n            \"properties\": {\n              \"name\": \"Sharjah Charging Station 1\",\n              \"address\": \"123 Charging Street, Sharjah\",\n              \"connector_types\": [\"CHAdeMO\", \"CCS\", \"Type 2\"],\n              \"status\": \"Operational\"\n            }\n          },\n          {\n            \"type\": \"Feature\",\n            \"geometry\": {\n              \"type\": \"Point\",\n              \"coordinates\": [55.394876, 25.352366]  \n            },\n            \"properties\": {\n              \"name\": \"Sharjah Charging Station 2\",\n              \"address\": \"456 Power Avenue, Sharjah\",\n              \"connector_types\": [\"CHAdeMO\", \"Type 2\"],\n              \"status\": \"Operational\"\n            }\n          },\n          {\n            \"type\": \"Feature\",\n            \"geometry\": {\n              \"type\": \"Point\",\n              \"coordinates\": [55.410923, 25.315070]  \n            },\n            \"properties\": {\n              \"name\": \"Sharjah Charging Station 3\",\n              \"address\": \"789 Energy Street, Sharjah\",\n              \"connector_types\": [\"CCS\", \"Type 2\"],\n              \"status\": \"Under Maintenance\"\n            }\n          },\n          {\n            \"type\": \"Feature\",\n            \"geometry\": {\n              \"type\": \"Point\",\n              \"coordinates\": [55.946987, 25.781074]  \n            },\n            \"properties\": {\n              \"name\": \"Ras Al Khaimah Charging Station 1\",\n              \"address\": \"123 Charging Street, Ras Al Khaimah\",\n              \"connector_types\": [\"CHAdeMO\", \"CCS\", \"Type 2\"],\n              \"status\": \"Operational\"\n            }\n          },\n          {\n            \"type\": \"Feature\",\n            \"geometry\": {\n              \"type\": \"Point\",\n              \"coordinates\": [55.943236, 25.791657]  \n            },\n            \"properties\": {\n              \"name\": \"Ras Al Khaimah Charging Station 2\",\n              \"address\": \"456 Power Avenue, Ras Al Khaimah\",\n              \"connector_types\": [\"CHAdeMO\", \"Type 2\"],\n              \"status\": \"Operational\"\n            }\n          },\n          {\n            \"type\": \"Feature\",\n            \"geometry\": {\n              \"type\": \"Point\",\n              \"coordinates\": [55.965124, 25.786513]  \n            },\n            \"properties\": {\n              \"name\": \"Ras Al Khaimah Charging Station 3\",\n              \"address\": \"789 Energy Street, Ras Al Khaimah\",\n              \"connector_types\": [\"CCS\", \"Type 2\"],\n              \"status\": \"Under Maintenance\"\n            }\n          },\n          {\n            \"type\": \"Feature\",\n            \"geometry\": {\n              \"type\": \"Point\",\n              \"coordinates\": [56.349813, 25.122610]  \n            },\n            \"properties\": {\n              \"name\": \"Fujairah Charging Station 1\",\n              \"address\": \"123 Charging Street, Fujairah\",\n              \"connector_types\": [\"CHAdeMO\", \"CCS\", \"Type 2\"],\n              \"status\": \"Operational\"\n            }\n          },\n          {\n            \"type\": \"Feature\",\n            \"geometry\": {\n              \"type\": \"Point\",\n              \"coordinates\": [56.342734, 25.129817]  \n            },\n            \"properties\": {\n              \"name\": \"Fujairah Charging Station 2\",\n              \"address\": \"456 Power Avenue, Fujairah\",\n              \"connector_types\": [\"CHAdeMO\", \"Type 2\"],\n              \"status\": \"Operational\"\n            }\n          },\n          {\n            \"type\": \"Feature\",\n            \"geometry\": {\n              \"type\": \"Point\",\n              \"coordinates\": [56.343900, 25.121394]  \n            },\n            \"properties\": {\n              \"name\": \"Fujairah Charging Station 3\",\n              \"address\": \"789 Energy Street, Fujairah\",\n              \"connector_types\": [\"CCS\", \"Type 2\"],\n              \"status\": \"Under Maintenance\"\n            }\n          },\n          {\n            \"type\": \"Feature\",\n            \"geometry\": {\n              \"type\": \"Point\",\n              \"coordinates\": [55.409541, 25.397591]  \n            },\n            \"properties\": {\n              \"name\": \"Ajman Charging Station 1\",\n              \"address\": \"123 Charging Street, Ajman\",\n              \"connector_types\": [\"CHAdeMO\", \"CCS\", \"Type 2\"],\n              \"status\": \"Operational\"\n            }\n          },\n          {\n            \"type\": \"Feature\",\n            \"geometry\": {\n              \"type\": \"Point\",\n              \"coordinates\": [55.406219, 25.394773]  \n            },\n            \"properties\": {\n              \"name\": \"Ajman Charging Station 2\",\n              \"address\": \"456 Power Avenue, Ajman\",\n              \"connector_types\": [\"CHAdeMO\", \"Type 2\"],\n              \"status\": \"Operational\"\n            }\n          },\n          {\n            \"type\": \"Feature\",\n            \"geometry\": {\n              \"type\": \"Point\",\n              \"coordinates\": [55.409389, 25.394511]  \n            },\n            \"properties\": {\n              \"name\": \"Ajman Charging Station 3\",\n              \"address\": \"789 Energy Street, Ajman\",\n              \"connector_types\": [\"CCS\", \"Type 2\"],\n              \"status\": \"Under Maintenance\"\n            }\n          }\n    ]\n  }\n",
							"options": {
								"raw": {
									"language": "json"
								}
							}
						},
						"url": {
							"raw": "https://interactive.data.api.platform.here.com/interactive/v1/catalogs/hrn:here:data::olp-here:heresdk-byod/layers/sample-points/features",
							"protocol": "https",
							"host": [
								"interactive",
								"data",
								"api",
								"platform",
								"here",
								"com"
							],
							"path": [
								"interactive",
								"v1",
								"catalogs",
								"hrn:here:data::olp-here:heresdk-byod",
								"layers",
								"sample-points",
								"features"
							]
						}
					},
					"response": []
				}
			],
			"auth": {
				"type": "bearer",
				"bearer": [
					{
						"key": "token",
						"value": "eyJhbGciOiJSUzUxMiIsImN0eSI6IkpXVCIsImlzcyI6IkhFUkUiLCJhaWQiOiJOaFVGOHM0RW5QV1V4dG5QdjRuVSIsImlhdCI6MTY5ODE0MDY2MCwiZXhwIjoxNjk4MjI3MDYwLCJraWQiOiJqMSJ9.ZXlKaGJHY2lPaUprYVhJaUxDSmxibU1pT2lKQk1qVTJRMEpETFVoVE5URXlJbjAuLkFRSEFLOHN0NVZ5NGFqWkQyUkMzZkEuTWN1ZFktYkNRenRCTXJzWXBaN2NIZVZudHVjZm1fdWluMWlOZ1h0Q3EwTG8zUU1RMUp2WFZDdEo5SV9BNkhQRUlIMlBmVWdSM2g0Q2tPdFR0aF9XS09lcHk5VzhhZDkzM2RoYVl1N1VJZk02b2IzdXA5enRSOGFBLU14by1SWGdlQVpvSmhubVJNMS0wY1pORWpYcjZlU1VQeUFMWS1lVUJxM2dMd2J3UEZtWDFwdE9IbEsyenlmWWUyYURvR0l6Tm8yWnBUaFFKWjNUMkQ1eWtjZUphVk1NNkNQM2ZiWi1WSEtXTm9Wa3o5Zy5uZFhwLUJwM1dHZHdCeFVkdENRMEQxaGNYbzVvTnBPUDd3cVByNFFYQnJJ.dnIRAFGCJikTvaEtG5dXT7xMJdZMvJ_6NqNgqUMK5LyCyss7qWt0Okp8xrM9lzGBcFv_yvOm9_nB5UCU_W_tu_UC67-GeheiedGOBEiLwm0Ku4tOYzWGOMlAVq4hmSen4UD3zTiNIWuVoSJ2wB4PWnoeD20Pr7xcMsYgLFQRKOMuLM0eHAg3CBmHZEV4zQA7LlftIxwtljPt8Gq7u63pcVRRDOHh17DRS3kETSVJOs38wWrtQu1mYUiMYfnGFsJlCSxvnoKMwSObmzZ3oSR_buKvwRMgdV6nSp1I_lfyisGNe5hWYb6GE5PCn_hnm0DkpsmMXwYMXyzZqGOVS-y0Kw",
						"type": "string"
					}
				]
			},
			"event": [
				{
					"listen": "prerequest",
					"script": {
						"type": "text/javascript",
						"exec": [
							""
						]
					}
				},
				{
					"listen": "test",
					"script": {
						"type": "text/javascript",
						"exec": [
							""
						]
					}
				}
			]
		}
	],
	"auth": {
		"type": "bearer",
		"bearer": [
			{
				"key": "token",
				"value": "eyJhbGciOiJSUzUxMiIsImN0eSI6IkpXVCIsImlzcyI6IkhFUkUiLCJhaWQiOiJOaFVGOHM0RW5QV1V4dG5QdjRuVSIsImlhdCI6MTY5NDYxOTA3NSwiZXhwIjoxNjk0NzA1NDc1LCJraWQiOiJqMSJ9.ZXlKaGJHY2lPaUprYVhJaUxDSmxibU1pT2lKQk1qVTJRMEpETFVoVE5URXlJbjAuLkd5NG9vd1hpRnVKdGpZR0JBVXd2UncuYncxTFJLZE5JTmMzQ2h1ZDU4X3JhNWdvOTRNU1hqZWZZNzd5aDRTY1duWFJrY3RaOWNYVFdNYXhNRzU3NlRLSVN6dXYteTIwdzgydWlpT2w0eExpR0pYYV92QWk0X3dGQm9kWHphQU9GSVpfV01uWGVhYlZCMkVfQ3hIZklOM3hSQngyODgtM3RVb2NmU2FicjBUZDRla2dBVWtab09YdmVNcnhmZi1iTFlKMC10NmZPeVdNQkR3RzJhSnlNZ2p2b2JBUTVFSTJlUjhtUlk3T2Y5UjR0REZsX2ZsTnFXM2lvTXFsbnFFSGd5RS44Wk5LaXRpZThpaW9qV0laTUdMZWgteDNmNno4Z1NtejlkTGlPODVoSmsw.epcxksN4NhrmANOgaDrpin-ECCXjP74i3k9nslVr2TZSarWhFCApjlzZXCxDOj6bFAn1-QiUOreM0zkcHPEZ3tesA7e-inMhjAFfllzcfnjkpqZH7qQPBFRMx-1uVriwfyF3zTBrZ6HX236TQVrpiiiAj6hpPKUDv6LS4ZiN6Pt04Wp-Z_2oevuNbFjw8qkCJnI0k0F2WGF_2XozSDsuj89cRS8blCxUNNDBcwSXLxEYyaejPUO52ZFvXbyKFYgq1kJ2YrJxfyQ5qiohL7aZRK7RZvy2S8cRykotjAWSwzasZugOpVjJvcNmNqcFdVw3TS3M9axIB8vffQa9c6SCVQ",
				"type": "string"
			}
		]
	},
	"event": [
		{
			"listen": "prerequest",
			"script": {
				"type": "text/javascript",
				"exec": [
					""
				]
			}
		},
		{
			"listen": "test",
			"script": {
				"type": "text/javascript",
				"exec": [
					""
				]
			}
		}
	]
}